<?xml version="1.0" encoding="UTF-8" standalone="no"?>
<svg
   xmlns:dc="http://purl.org/dc/elements/1.1/"
   xmlns:cc="http://creativecommons.org/ns#"
   xmlns:rdf="http://www.w3.org/1999/02/22-rdf-syntax-ns#"
   xmlns:svg="http://www.w3.org/2000/svg"
   xmlns="http://www.w3.org/2000/svg"
   xmlns:sodipodi="http://sodipodi.sourceforge.net/DTD/sodipodi-0.dtd"
   xmlns:inkscape="http://www.inkscape.org/namespaces/inkscape"
   viewBox="0 0 16 16"
   version="1.1"
   id="svg4"
   sodipodi:docname="show.svg"
   inkscape:version="0.92.2 5c3e80d, 2017-08-06">
  <metadata
     id="metadata10">
    <rdf:RDF>
      <cc:Work
         rdf:about="">
        <dc:format>image/svg+xml</dc:format>
        <dc:type
           rdf:resource="http://purl.org/dc/dcmitype/StillImage" />
      </cc:Work>
    </rdf:RDF>
  </metadata>
  <defs
     id="defs8" />
  <sodipodi:namedview
     pagecolor="#ffffff"
     bordercolor="#666666"
     borderopacity="1"
     objecttolerance="10"
     gridtolerance="10"
     guidetolerance="10"
     inkscape:pageopacity="0"
     inkscape:pageshadow="2"
     inkscape:window-width="643"
     inkscape:window-height="480"
     id="namedview6"
     showgrid="false"
     inkscape:zoom="14.75"
     inkscape:cx="8"
     inkscape:cy="8"
     inkscape:window-x="0"
     inkscape:window-y="31"
     inkscape:window-maximized="0"
     inkscape:current-layer="svg4" />
  <path
     d="m 0.538 0 c -0.293 0.031 -0.539 0.306 -0.537 0.6 l 0 10.808 c 0 0.314 0.286 0.6 0.6 0.6 l 5.4 0 0 2.99 4 0 0 -2.99 5.4 0 c 0.314 0 0.6 -0.286 0.6 -0.6 l 0 -10.808 c 0 -0.314 -0.286 -0.6 -0.6 -0.6 l -14.8 0 z m 1.813 2 c 0.025 -0.005 0.05 -0.005 0.075 0 l 11.147 0 c 0.209 0 0.4 0.191 0.4 0.4 l 0 7.205 c 0 0.21 -0.191 0.4 -0.4 0.4 l -11.147 0 c -0.209 0 -0.4 -0.191 -0.4 -0.4 l 0 -7.205 c -0.003 -0.187 0.142 -0.365 0.325 -0.4 z m -0.351 11.997 0 2 l 12 0 0 -2 z"
     style="fill:#404040;fill-opacity:1;color:#000"
     id="path2" />
</svg>
